\select@language {english}
\addvspace {10\p@ }
\addvspace {10\p@ }
\contentsline {figure}{\numberline {2.1}{\ignorespaces The blue line is the hyperplane that separates the dot instances from the cross instances}}{18}{figure.2.1}
\contentsline {figure}{\numberline {2.2}{\ignorespaces There is no single hyperplane that we can use to separate the samples in the Cartesian space but if we transform the instances into the polar space, we can separate them using a hyperplane.}}{18}{figure.2.2}
\contentsline {figure}{\numberline {2.3}{\ignorespaces There is no single hyperplane that we can use to separate the samples in the Cartesian space but if we transform the instances into the polar space, we can separate them using a hyperplane.}}{20}{figure.2.3}
\contentsline {figure}{\numberline {2.4}{\ignorespaces The gradient ascent and gradient decent approach to find the maximum or minimum of a function.}}{22}{figure.2.4}
\contentsline {figure}{\numberline {2.5}{\ignorespaces The hyperplane for separating a three-class problem.}}{23}{figure.2.5}
\contentsline {figure}{\numberline {2.6}{\ignorespaces The left figure is the boundary from cheating LDA by adding quadratic features into the dataset. The right figure is the boundary that is found by QDA}}{24}{figure.2.6}
\contentsline {figure}{\numberline {2.7}{\ignorespaces The straight line gives a better generalization rather than the polynomial line.}}{25}{figure.2.7}
\contentsline {figure}{\numberline {2.8}{\ignorespaces The left figures represent the distribution of each class. You can see that each class has the same covariance but the mean of each class is different. The right figure shows the actual data that is sampled from these three distribution and the hyperplanes that is separating these three classes.}}{26}{figure.2.8}
\contentsline {figure}{\numberline {2.9}{\ignorespaces Example of two classes of data with different covariance matrices}}{27}{figure.2.9}
\contentsline {figure}{\numberline {2.10}{\ignorespaces Example of two classes of data with different covariance matrices and same mean. The point on the right can be easily classified by LDA, however the point on the mean could belong to each of the two classes.}}{27}{figure.2.10}
\contentsline {figure}{\numberline {2.11}{\ignorespaces Interpolating between QDA and LDA. You can see that the misclassification error is increased after point $\alpha =0.9$ due to the overfitting problem.}}{29}{figure.2.11}
\contentsline {figure}{\numberline {2.12}{\ignorespaces The projection of all the points in the dataset on a vector. The vector that is shown in this figure is not a good projection vector since after projection most of the data will overlap between the two classes}}{30}{figure.2.12}
\addvspace {10\p@ }
\contentsline {figure}{\numberline {3.1}{\ignorespaces The dataset with five features and PlayTennis as the class label}}{36}{figure.3.1}
\contentsline {figure}{\numberline {3.2}{\ignorespaces One of the decision tree that is generated for the dataset}}{36}{figure.3.2}
\contentsline {figure}{\numberline {3.3}{\ignorespaces A decision list for the function AND on a three features dataset}}{38}{figure.3.3}
\contentsline {figure}{\numberline {3.4}{\ignorespaces The tree that can be generated using a complex function in the root node}}{38}{figure.3.4}
\contentsline {figure}{\numberline {3.5}{\ignorespaces The partitioning of the dataset using the decision tree. The upper right figure represents a clean separation on the dataset whereas the upper left does not provide a clean separation on the dataset}}{39}{figure.3.5}
\contentsline {figure}{\numberline {3.6}{\ignorespaces Two different boundaries that can occur in a feature.7}}{40}{figure.3.6}
\contentsline {figure}{\numberline {3.7}{\ignorespaces The black line represents the performance of the decision tree on train data and the red line represents the performance on the test data. Due to the problem of overfitting, by the growth of tree the performance will decrease. In this figure, the performance is measured by the misclassification error and we can see how the error is increased after a specific point}}{41}{figure.3.7}
\contentsline {figure}{\numberline {3.8}{\ignorespaces The comparison between the Bias of a linear equation and a polynomial equation.}}{42}{figure.3.8}
\addvspace {10\p@ }
\contentsline {figure}{\numberline {4.1}{\ignorespaces Using the $K=5$, we will find 5 nearest points to the question mark. Then, classify the points based on the class that has majority points amongst these 5 points.}}{43}{figure.4.1}
\contentsline {figure}{\numberline {4.2}{\ignorespaces The boundary that is created using the $K=15$}}{44}{figure.4.2}
\contentsline {figure}{\numberline {4.3}{\ignorespaces The boundary that is created using the $K=1$}}{44}{figure.4.3}
\addvspace {10\p@ }
\contentsline {figure}{\numberline {5.1}{\ignorespaces A dataset that does not have a perfect linear shape but we can still approximate it using a linear fit}}{46}{figure.5.1}
\contentsline {figure}{\numberline {5.2}{\ignorespaces The horizontal line has a bigger least square error w.r.t the linear line that follows the trend of data}}{46}{figure.5.2}
\contentsline {figure}{\numberline {5.3}{\ignorespaces $f_{1}^{'}$ and $f_{2}^{'}$ are the new axis that is found on SVD and they explain the most variance in the data}}{53}{figure.5.3}
\contentsline {figure}{\numberline {5.4}{\ignorespaces The plot of the $\lambda $ vs the estimated error in the Homotopy method.}}{55}{figure.5.4}
\contentsline {figure}{\numberline {5.5}{\ignorespaces The plot of the shrinkage factor vs the coefficient of the regressors.}}{56}{figure.5.5}
\contentsline {figure}{\numberline {5.6}{\ignorespaces The difference between best subset selection, ridge regression, and LASSO}}{56}{figure.5.6}
\addvspace {10\p@ }
\contentsline {figure}{\numberline {6.1}{\ignorespaces The prior probability of the coin before seeing any data}}{60}{figure.6.1}
\contentsline {figure}{\numberline {6.2}{\ignorespaces The prior probability of the coin before seeing any data}}{63}{figure.6.2}
\contentsline {figure}{\numberline {6.3}{\ignorespaces An example of how Bias and Variances change for regression classifier}}{66}{figure.6.3}
\contentsline {figure}{\numberline {6.4}{\ignorespaces The AdaBoost algorithm}}{67}{figure.6.4}
\contentsline {figure}{\numberline {6.5}{\ignorespaces An example of the Boosting algorithm}}{68}{figure.6.5}
\contentsline {figure}{\numberline {6.6}{\ignorespaces How the sine function separates samples from two classes}}{69}{figure.6.6}
\contentsline {figure}{\numberline {6.7}{\ignorespaces Different dichotomies of two samples in for a binary class}}{70}{figure.6.7}
\contentsline {figure}{\numberline {6.8}{\ignorespaces An example where a hyperplane cannot separate the with four samples in 2D dimension}}{70}{figure.6.8}
