\relax 
\providecommand\HyperFirstAtBeginDocument{\AtBeginDocument}
\HyperFirstAtBeginDocument{\ifx\hyper@anchor\@undefined
\global\let\oldcontentsline\contentsline
\gdef\contentsline#1#2#3#4{\oldcontentsline{#1}{#2}{#3}}
\global\let\oldnewlabel\newlabel
\gdef\newlabel#1#2{\newlabelxx{#1}#2}
\gdef\newlabelxx#1#2#3#4#5#6{\oldnewlabel{#1}{{#2}{#3}}}
\AtEndDocument{\ifx\hyper@anchor\@undefined
\let\contentsline\oldcontentsline
\let\newlabel\oldnewlabel
\fi}
\fi}
\global\let\hyper@last\relax 
\gdef\HyperFirstAtBeginDocument#1{#1}
\providecommand\HyField@AuxAddToFields[1]{}
\select@language{english}
\@writefile{toc}{\select@language{english}}
\@writefile{lof}{\select@language{english}}
\@writefile{lot}{\select@language{english}}
\@writefile{toc}{\contentsline {chapter}{\numberline {1}Classification}{1}{chapter.1}}
\@writefile{lof}{\addvspace {10\p@ }}
\@writefile{lot}{\addvspace {10\p@ }}
\@writefile{toc}{\contentsline {section}{\numberline {1.1}Applications of classification}{1}{section.1.1}}
\@writefile{toc}{\contentsline {section}{\numberline {1.2}Input and Outputs}{2}{section.1.2}}
\@writefile{toc}{\contentsline {section}{\numberline {1.3}Wrong assumption on classification}{2}{section.1.3}}
\@writefile{toc}{\contentsline {section}{\numberline {1.4}Bayesian Approach}{3}{section.1.4}}
\@writefile{toc}{\contentsline {subsection}{\numberline {1.4.1}Naive Bayes}{4}{subsection.1.4.1}}
\@writefile{toc}{\contentsline {subsection}{\numberline {1.4.2}Text Classification using Naive Bayes}{6}{subsection.1.4.2}}
\@writefile{toc}{\contentsline {subsection}{\numberline {1.4.3}Bag of Words}{7}{subsection.1.4.3}}
\@writefile{toc}{\contentsline {subsection}{\numberline {1.4.4}Laplace Smoothing}{8}{subsection.1.4.4}}
\@writefile{toc}{\contentsline {subsection}{\numberline {1.4.5}Good-Turing estimator}{8}{subsection.1.4.5}}
\@writefile{lot}{\contentsline {table}{\numberline {1.1}{\ignorespaces Comparison of the $P(f_i|c)$ using different smoothing approaches}}{9}{table.1.1}}
\newlabel{table:mlelapgt}{{1.1}{9}{Comparison of the $P(f_i|c)$ using different smoothing approaches\relax }{table.1.1}{}}
\@writefile{toc}{\contentsline {subsection}{\numberline {1.4.6}Bernoulli Model}{10}{subsection.1.4.6}}
\@writefile{toc}{\contentsline {subsection}{\numberline {1.4.7}Feature Selection}{10}{subsection.1.4.7}}
\@writefile{toc}{\contentsline {subsection}{\numberline {1.4.8}NB for continuous-valued features}{10}{subsection.1.4.8}}
\@writefile{toc}{\contentsline {subsection}{\numberline {1.4.9}Evaluation Strategy}{11}{subsection.1.4.9}}
\@writefile{lot}{\contentsline {table}{\numberline {1.2}{\ignorespaces The confusion matrix over a dataset}}{12}{table.1.2}}
\newlabel{table:confusion}{{1.2}{12}{The confusion matrix over a dataset\relax }{table.1.2}{}}
\@writefile{toc}{\contentsline {subsection}{\numberline {1.4.10}Theoretical understanding of Naive Bayes}{13}{subsection.1.4.10}}
\@writefile{toc}{\contentsline {subsection}{\numberline {1.4.11}Exercise}{15}{subsection.1.4.11}}
\@writefile{toc}{\contentsline {chapter}{\numberline {2}Linear Methods for Classification}{17}{chapter.2}}
\@writefile{lof}{\addvspace {10\p@ }}
\@writefile{lot}{\addvspace {10\p@ }}
\@writefile{toc}{\contentsline {section}{\numberline {2.1}Logistic Regression}{17}{section.2.1}}
\@writefile{lof}{\contentsline {figure}{\numberline {2.1}{\ignorespaces The blue line is the hyperplane that separates the dot instances from the cross instances}}{18}{figure.2.1}}
\newlabel{hyperplane}{{2.1}{18}{The blue line is the hyperplane that separates the dot instances from the cross instances\relax }{figure.2.1}{}}
\@writefile{lof}{\contentsline {figure}{\numberline {2.2}{\ignorespaces There is no single hyperplane that we can use to separate the samples in the Cartesian space but if we transform the instances into the polar space, we can separate them using a hyperplane.}}{18}{figure.2.2}}
\newlabel{fig:transformation}{{2.2}{18}{There is no single hyperplane that we can use to separate the samples in the Cartesian space but if we transform the instances into the polar space, we can separate them using a hyperplane}{figure.2.2}{}}
\newlabel{eq1}{{2.1}{19}{Logistic Regression\relax }{}{}}
\newlabel{eq2}{{2.1}{19}{Logistic Regression\relax }{}{}}
\@writefile{lof}{\contentsline {figure}{\numberline {2.3}{\ignorespaces There is no single hyperplane that we can use to separate the samples in the Cartesian space but if we transform the instances into the polar space, we can separate them using a hyperplane.}}{20}{figure.2.3}}
\newlabel{fig:possiblehyperplanes}{{2.3}{20}{There is no single hyperplane that we can use to separate the samples in the Cartesian space but if we transform the instances into the polar space, we can separate them using a hyperplane}{figure.2.3}{}}
\newlabel{eq3}{{2.1}{21}{Logistic Regression\relax }{}{}}
\@writefile{lof}{\contentsline {figure}{\numberline {2.4}{\ignorespaces The gradient ascent and gradient decent approach to find the maximum or minimum of a function.}}{22}{figure.2.4}}
\newlabel{fig:gradient}{{2.4}{22}{The gradient ascent and gradient decent approach to find the maximum or minimum of a function}{figure.2.4}{}}
\@writefile{lof}{\contentsline {figure}{\numberline {2.5}{\ignorespaces The hyperplane for separating a three-class problem.}}{23}{figure.2.5}}
\newlabel{fig:threeclasses}{{2.5}{23}{The hyperplane for separating a three-class problem}{figure.2.5}{}}
\@writefile{toc}{\contentsline {subsection}{\numberline {2.1.1}More than two class scenario}{23}{subsection.2.1.1}}
\@writefile{toc}{\contentsline {subsection}{\numberline {2.1.2}Cheating linear assumption}{23}{subsection.2.1.2}}
\@writefile{lof}{\contentsline {figure}{\numberline {2.6}{\ignorespaces The left figure is the boundary from cheating LDA by adding quadratic features into the dataset. The right figure is the boundary that is found by QDA}}{24}{figure.2.6}}
\newlabel{fig:cheatinglda}{{2.6}{24}{The left figure is the boundary from cheating LDA by adding quadratic features into the dataset. The right figure is the boundary that is found by QDA\relax }{figure.2.6}{}}
\@writefile{lof}{\contentsline {figure}{\numberline {2.7}{\ignorespaces The straight line gives a better generalization rather than the polynomial line.}}{25}{figure.2.7}}
\newlabel{fig:overfitting}{{2.7}{25}{The straight line gives a better generalization rather than the polynomial line}{figure.2.7}{}}
\@writefile{toc}{\contentsline {section}{\numberline {2.2}Linear Discriminant Analysis (LDA)}{25}{section.2.2}}
\newlabel{eq4}{{2.1}{25}{Linear Discriminant Analysis (LDA)\relax }{}{}}
\@writefile{lof}{\contentsline {figure}{\numberline {2.8}{\ignorespaces The left figures represent the distribution of each class. You can see that each class has the same covariance but the mean of each class is different. The right figure shows the actual data that is sampled from these three distribution and the hyperplanes that is separating these three classes.}}{26}{figure.2.8}}
\newlabel{fig:lda}{{2.8}{26}{The left figures represent the distribution of each class. You can see that each class has the same covariance but the mean of each class is different. The right figure shows the actual data that is sampled from these three distribution and the hyperplanes that is separating these three classes}{figure.2.8}{}}
\newlabel{eq5}{{2.1}{26}{Linear Discriminant Analysis (LDA)\relax }{}{}}
\@writefile{lof}{\contentsline {figure}{\numberline {2.9}{\ignorespaces Example of two classes of data with different covariance matrices}}{27}{figure.2.9}}
\newlabel{fig:differentcovariance}{{2.9}{27}{Example of two classes of data with different covariance matrices\relax }{figure.2.9}{}}
\@writefile{lof}{\contentsline {figure}{\numberline {2.10}{\ignorespaces Example of two classes of data with different covariance matrices and same mean. The point on the right can be easily classified by LDA, however the point on the mean could belong to each of the two classes.}}{27}{figure.2.10}}
\newlabel{fig:samemean}{{2.10}{27}{Example of two classes of data with different covariance matrices and same mean. The point on the right can be easily classified by LDA, however the point on the mean could belong to each of the two classes}{figure.2.10}{}}
\@writefile{toc}{\contentsline {subsection}{\numberline {2.2.1}Quadratic Discriminant Analysis (QDA)}{28}{subsection.2.2.1}}
\@writefile{lof}{\contentsline {figure}{\numberline {2.11}{\ignorespaces Interpolating between QDA and LDA. You can see that the misclassification error is increased after point $\alpha =0.9$ due to the overfitting problem.}}{29}{figure.2.11}}
\newlabel{fig:interpolate}{{2.11}{29}{Interpolating between QDA and LDA. You can see that the misclassification error is increased after point $\alpha =0.9$ due to the overfitting problem}{figure.2.11}{}}
\@writefile{toc}{\contentsline {subsection}{\numberline {2.2.2}Combining LDA and QDA}{29}{subsection.2.2.2}}
\newlabel{eq6}{{2.1}{29}{Combining LDA and QDA\relax }{}{}}
\@writefile{toc}{\contentsline {section}{\numberline {2.3}Fisher's optimal linear discriminant}{29}{section.2.3}}
\@writefile{lof}{\contentsline {figure}{\numberline {2.12}{\ignorespaces The projection of all the points in the dataset on a vector. The vector that is shown in this figure is not a good projection vector since after projection most of the data will overlap between the two classes}}{30}{figure.2.12}}
\newlabel{fig:projection}{{2.12}{30}{The projection of all the points in the dataset on a vector. The vector that is shown in this figure is not a good projection vector since after projection most of the data will overlap between the two classes\relax }{figure.2.12}{}}
\@writefile{toc}{\contentsline {subsection}{\numberline {2.3.1}Generalization of LDA and Fisher's method to more than two classes}{33}{subsection.2.3.1}}
\@writefile{toc}{\contentsline {chapter}{\numberline {3}Tree Based Classifiers}{35}{chapter.3}}
\@writefile{lof}{\addvspace {10\p@ }}
\@writefile{lot}{\addvspace {10\p@ }}
\@writefile{toc}{\contentsline {section}{\numberline {3.1}Tree Induction}{35}{section.3.1}}
\@writefile{lof}{\contentsline {figure}{\numberline {3.1}{\ignorespaces The dataset with five features and PlayTennis as the class label}}{36}{figure.3.1}}
\newlabel{fig:dataset}{{3.1}{36}{The dataset with five features and PlayTennis as the class label\relax }{figure.3.1}{}}
\@writefile{lof}{\contentsline {figure}{\numberline {3.2}{\ignorespaces One of the decision tree that is generated for the dataset}}{36}{figure.3.2}}
\newlabel{fig:dtree}{{3.2}{36}{One of the decision tree that is generated for the dataset\relax }{figure.3.2}{}}
\@writefile{toc}{\contentsline {subsection}{\numberline {3.1.1}Issues with tree learning}{37}{subsection.3.1.1}}
\@writefile{lof}{\contentsline {figure}{\numberline {3.3}{\ignorespaces A decision list for the function AND on a three features dataset}}{38}{figure.3.3}}
\newlabel{fig:dlist}{{3.3}{38}{A decision list for the function AND on a three features dataset\relax }{figure.3.3}{}}
\@writefile{lof}{\contentsline {figure}{\numberline {3.4}{\ignorespaces The tree that can be generated using a complex function in the root node}}{38}{figure.3.4}}
\newlabel{fig:xortree}{{3.4}{38}{The tree that can be generated using a complex function in the root node\relax }{figure.3.4}{}}
\@writefile{lof}{\contentsline {figure}{\numberline {3.5}{\ignorespaces The partitioning of the dataset using the decision tree. The upper right figure represents a clean separation on the dataset whereas the upper left does not provide a clean separation on the dataset}}{39}{figure.3.5}}
\newlabel{fig:partition}{{3.5}{39}{The partitioning of the dataset using the decision tree. The upper right figure represents a clean separation on the dataset whereas the upper left does not provide a clean separation on the dataset\relax }{figure.3.5}{}}
\@writefile{toc}{\contentsline {subsection}{\numberline {3.1.2}Continuous-valued attribute}{39}{subsection.3.1.2}}
\@writefile{toc}{\contentsline {subsection}{\numberline {3.1.3}Feature Selection in Decision Tree}{39}{subsection.3.1.3}}
\@writefile{lof}{\contentsline {figure}{\numberline {3.6}{\ignorespaces Two different boundaries that can occur in a feature.7}}{40}{figure.3.6}}
\newlabel{fig:boundary}{{3.6}{40}{Two different boundaries that can occur in a feature.7\relax }{figure.3.6}{}}
\@writefile{toc}{\contentsline {subsection}{\numberline {3.1.4}Stopping Criteria}{40}{subsection.3.1.4}}
\@writefile{lof}{\contentsline {figure}{\numberline {3.7}{\ignorespaces The black line represents the performance of the decision tree on train data and the red line represents the performance on the test data. Due to the problem of overfitting, by the growth of tree the performance will decrease. In this figure, the performance is measured by the misclassification error and we can see how the error is increased after a specific point}}{41}{figure.3.7}}
\newlabel{fig:cross}{{3.7}{41}{The black line represents the performance of the decision tree on train data and the red line represents the performance on the test data. Due to the problem of overfitting, by the growth of tree the performance will decrease. In this figure, the performance is measured by the misclassification error and we can see how the error is increased after a specific point\relax }{figure.3.7}{}}
\@writefile{toc}{\contentsline {subsection}{\numberline {3.1.5}Bias and Variance}{41}{subsection.3.1.5}}
\@writefile{lof}{\contentsline {figure}{\numberline {3.8}{\ignorespaces The comparison between the Bias of a linear equation and a polynomial equation.}}{42}{figure.3.8}}
\newlabel{fig:bias}{{3.8}{42}{The comparison between the Bias of a linear equation and a polynomial equation}{figure.3.8}{}}
\@writefile{toc}{\contentsline {chapter}{\numberline {4}$K$-Nearest Neighbor Classifier}{43}{chapter.4}}
\@writefile{lof}{\addvspace {10\p@ }}
\@writefile{lot}{\addvspace {10\p@ }}
\@writefile{lof}{\contentsline {figure}{\numberline {4.1}{\ignorespaces Using the $K=5$, we will find 5 nearest points to the question mark. Then, classify the points based on the class that has majority points amongst these 5 points.}}{43}{figure.4.1}}
\newlabel{fig:knn}{{4.1}{43}{Using the $K=5$, we will find 5 nearest points to the question mark. Then, classify the points based on the class that has majority points amongst these 5 points}{figure.4.1}{}}
\@writefile{lof}{\contentsline {figure}{\numberline {4.2}{\ignorespaces The boundary that is created using the $K=15$}}{44}{figure.4.2}}
\newlabel{fig:knnfifteen}{{4.2}{44}{The boundary that is created using the $K=15$\relax }{figure.4.2}{}}
\@writefile{lof}{\contentsline {figure}{\numberline {4.3}{\ignorespaces The boundary that is created using the $K=1$}}{44}{figure.4.3}}
\newlabel{fig:knnone}{{4.3}{44}{The boundary that is created using the $K=1$\relax }{figure.4.3}{}}
\@writefile{toc}{\contentsline {chapter}{\numberline {5}Regression}{45}{chapter.5}}
\@writefile{lof}{\addvspace {10\p@ }}
\@writefile{lot}{\addvspace {10\p@ }}
\@writefile{lof}{\contentsline {figure}{\numberline {5.1}{\ignorespaces A dataset that does not have a perfect linear shape but we can still approximate it using a linear fit}}{46}{figure.5.1}}
\newlabel{fig:linear}{{5.1}{46}{A dataset that does not have a perfect linear shape but we can still approximate it using a linear fit\relax }{figure.5.1}{}}
\@writefile{lof}{\contentsline {figure}{\numberline {5.2}{\ignorespaces The horizontal line has a bigger least square error w.r.t the linear line that follows the trend of data}}{46}{figure.5.2}}
\newlabel{fig:twoline}{{5.2}{46}{The horizontal line has a bigger least square error w.r.t the linear line that follows the trend of data\relax }{figure.5.2}{}}
\newlabel{fig:projection}{{5}{48}{Regression\relax }{figure.5.2}{}}
\@writefile{toc}{\contentsline {section}{\numberline {5.1}Gauss-Markov Theorem}{48}{section.5.1}}
\newlabel{fig:allfeature}{{5.2}{50}{Subset Selection\relax }{section.5.2}{}}
\@writefile{toc}{\contentsline {section}{\numberline {5.2}Subset Selection}{50}{section.5.2}}
\@writefile{toc}{\contentsline {section}{\numberline {5.3}Shrinkage method}{51}{section.5.3}}
\@writefile{toc}{\contentsline {subsection}{\numberline {5.3.1}Ridge Regression}{51}{subsection.5.3.1}}
\@writefile{toc}{\contentsline {subsection}{\numberline {5.3.2}Singular Value Decomposition}{52}{subsection.5.3.2}}
\@writefile{lof}{\contentsline {figure}{\numberline {5.3}{\ignorespaces $f_{1}^{'}$ and $f_{2}^{'}$ are the new axis that is found on SVD and they explain the most variance in the data}}{53}{figure.5.3}}
\newlabel{fig:svd}{{5.3}{53}{$f_{1}^{'}$ and $f_{2}^{'}$ are the new axis that is found on SVD and they explain the most variance in the data\relax }{figure.5.3}{}}
\@writefile{toc}{\contentsline {subsection}{\numberline {5.3.3}Least Absolute Shrinkage And Selection Operator: LASSO}{54}{subsection.5.3.3}}
\@writefile{lof}{\contentsline {figure}{\numberline {5.4}{\ignorespaces The plot of the $\lambda $ vs the estimated error in the Homotopy method.}}{55}{figure.5.4}}
\newlabel{fig:lasso}{{5.4}{55}{The plot of the $\lambda $ vs the estimated error in the Homotopy method}{figure.5.4}{}}
\@writefile{lof}{\contentsline {figure}{\numberline {5.5}{\ignorespaces The plot of the shrinkage factor vs the coefficient of the regressors.}}{56}{figure.5.5}}
\newlabel{fig:shrinkage}{{5.5}{56}{The plot of the shrinkage factor vs the coefficient of the regressors}{figure.5.5}{}}
\@writefile{lof}{\contentsline {figure}{\numberline {5.6}{\ignorespaces The difference between best subset selection, ridge regression, and LASSO}}{56}{figure.5.6}}
\newlabel{fig:comparison}{{5.6}{56}{The difference between best subset selection, ridge regression, and LASSO\relax }{figure.5.6}{}}
\newlabel{table:comparison}{{5.3.3}{56}{Least Absolute Shrinkage And Selection Operator: LASSO\relax }{figure.5.5}{}}
\newlabel{fig:constraint}{{5.3.3}{57}{Least Absolute Shrinkage And Selection Operator: LASSO\relax }{figure.5.6}{}}
\newlabel{fig:contour}{{5.3.3}{57}{Least Absolute Shrinkage And Selection Operator: LASSO\relax }{figure.5.6}{}}
\@writefile{toc}{\contentsline {subsection}{\numberline {5.3.4}Least Angle Regression}{57}{subsection.5.3.4}}
\@writefile{toc}{\contentsline {chapter}{\numberline {6}Model Selection}{59}{chapter.6}}
\@writefile{lof}{\addvspace {10\p@ }}
\@writefile{lot}{\addvspace {10\p@ }}
\@writefile{toc}{\contentsline {section}{\numberline {6.1}Bayes Decision Theory}{59}{section.6.1}}
\@writefile{lof}{\contentsline {figure}{\numberline {6.1}{\ignorespaces The prior probability of the coin before seeing any data}}{60}{figure.6.1}}
\newlabel{fig6:prior}{{6.1}{60}{The prior probability of the coin before seeing any data\relax }{figure.6.1}{}}
\@writefile{lof}{\contentsline {figure}{\numberline {6.2}{\ignorespaces The prior probability of the coin before seeing any data}}{63}{figure.6.2}}
\newlabel{fig6:priorlambda}{{6.2}{63}{The prior probability of the coin before seeing any data\relax }{figure.6.2}{}}
\@writefile{toc}{\contentsline {section}{\numberline {6.2}Bias-Variance Decomposition}{63}{section.6.2}}
\newlabel{eq6.1}{{6.2}{65}{Bias-Variance Decomposition\relax }{equation.6.2.2}{}}
\newlabel{eq6.2}{{6.3}{65}{Bias-Variance Decomposition\relax }{equation.6.2.3}{}}
\@writefile{lof}{\contentsline {figure}{\numberline {6.3}{\ignorespaces An example of how Bias and Variances change for regression classifier}}{66}{figure.6.3}}
\newlabel{fig6:biasvariance}{{6.3}{66}{An example of how Bias and Variances change for regression classifier\relax }{figure.6.3}{}}
\@writefile{toc}{\contentsline {section}{\numberline {6.3}Ensemble Methods}{66}{section.6.3}}
\@writefile{toc}{\contentsline {subsection}{\numberline {6.3.1}Bagging}{66}{subsection.6.3.1}}
\@writefile{lof}{\contentsline {figure}{\numberline {6.4}{\ignorespaces The AdaBoost algorithm}}{67}{figure.6.4}}
\newlabel{fig6:adaboost}{{6.4}{67}{The AdaBoost algorithm\relax }{figure.6.4}{}}
\@writefile{toc}{\contentsline {subsection}{\numberline {6.3.2}Boosting}{67}{subsection.6.3.2}}
\@writefile{lof}{\contentsline {figure}{\numberline {6.5}{\ignorespaces An example of the Boosting algorithm}}{68}{figure.6.5}}
\newlabel{fig6:boosting}{{6.5}{68}{An example of the Boosting algorithm\relax }{figure.6.5}{}}
\@writefile{lof}{\contentsline {figure}{\numberline {6.6}{\ignorespaces How the sine function separates samples from two classes}}{69}{figure.6.6}}
\newlabel{fig6:sine}{{6.6}{69}{How the sine function separates samples from two classes\relax }{figure.6.6}{}}
\@writefile{toc}{\contentsline {subsection}{\numberline {6.3.3}Stacking}{69}{subsection.6.3.3}}
\@writefile{toc}{\contentsline {section}{\numberline {6.4}VC-Dimension}{69}{section.6.4}}
\@writefile{lof}{\contentsline {figure}{\numberline {6.7}{\ignorespaces Different dichotomies of two samples in for a binary class}}{70}{figure.6.7}}
\newlabel{fig6:dichotomies1}{{6.7}{70}{Different dichotomies of two samples in for a binary class\relax }{figure.6.7}{}}
\@writefile{lof}{\contentsline {figure}{\numberline {6.8}{\ignorespaces An example where a hyperplane cannot separate the with four samples in 2D dimension}}{70}{figure.6.8}}
\newlabel{fig6:hyperplane}{{6.8}{70}{An example where a hyperplane cannot separate the with four samples in 2D dimension\relax }{figure.6.8}{}}
\@writefile{toc}{\contentsline {section}{\numberline {6.5}Other Methods}{71}{section.6.5}}
